{
  "page": 1,
  "limit": 1,
  "pages": 4,
  "total": 4,
  "_links": {
    "self": {
      "href": "/api/channel/my?page=1&limit=1"
    },
    "first": {
      "href": "/api/channel/my?page=1&limit=1"
    },
    "last": {
      "href": "/api/channel/my?page=4&limit=1"
    },
    "next": {
      "href": "/api/channel/my?page=2&limit=1"
    }
  },
  "_embedded": {
    "channels": [
      {
        "beacon": {
          "id": "8c798a67-0000-4000-a000-000000000001",
          "active": true,
          "content": {
            "id": "12d1da34-0000-4000-a000-000000000003",
            "title": "Deck 1 title"
          },
          "name": "Beacon 1100",
          "published": true,
          "functioningHours": {
            "days": [
              {
                "dayOfWeek": 1,
                "intervals": [
                  {
                    "start": {
                      "hours": 0,
                      "minutes": 0
                    },
                    "end": {
                      "hours": 24,
                      "minutes": 0
                    }
                  }
                ]
              },
              {
                "dayOfWeek": 3,
                "intervals": [
                  {
                    "start": {
                      "hours": 8,
                      "minutes": 0
                    },
                    "end": {
                      "hours": 12,
                      "minutes": 0
                    }
                  },
                  {
                    "start": {
                      "hours": 13,
                      "minutes": 0
                    },
                    "end": {
                      "hours": 18,
                      "minutes": 0
                    }
                  }
                ]
              },
              {
                "dayOfWeek": 5,
                "intervals": [
                  {
                    "start": {
                      "hours": 0,
                      "minutes": 0
                    },
                    "end": {
                      "hours": 24,
                      "minutes": 0
                    }
                  }
                ]
              }
            ],
            "timezone": "Europe/Berlin"
          },
          "functioningHoursNextEvent": "2018-01-17T08:00:00+0100",
          "inFunctioningHours": true,
          "note": null,
          "broadcastProtocol": 1,
          "uuid": "2e422b9f-4955-4f1d-95d1-e57626ad1b26",
          "major": 1,
          "minor": 100,
          "eddystoneUrl": null,
          "location": {
            "coordinates": {
              "longitude": 9.983716,
              "latitude": 53.673348
            },
            "address": {
              "formattedAddress": "Germany"
            }
          },
          "preset": null
        }
      }
    ]
  }
}