{
  "page": 1,
  "limit": 3,
  "pages": 3,
  "total": 9,
  "_links": {
    "self": {
      "href": "\/api\/category?page=1&limit=3"
    },
    "first": {
      "href": "\/api\/category?page=1&limit=3"
    },
    "last": {
      "href": "\/api\/category?page=3&limit=3"
    },
    "next": {
      "href": "\/api\/category?page=2&limit=3"
    }
  },
  "_embedded": {
    "categories": [
      {
        "category": {
          "name": "Health and Wellness",
          "id": 1,
          "colorHex": "F91E57"
        }
      },
      {
        "category": {
          "name": "Sport",
          "id": 2,
          "colorHex": "F47E00"
        }
      },
      {
        "category": {
          "name": "Hobby",
          "id": 3,
          "colorHex": "B90D19"
        }
      }
    ]
  }
}